This is BibTeX, Version 0.99d (TeX Live 2013/Debian)
Capacity: max_strings=35307, hash_size=35307, hash_prime=30011
The top-level auxiliary file: tutorial.aux
The style file: plainnat.bst
Database file #1: tutorial.bib
You've used 2 entries,
            2773 wiz_defined-function locations,
            606 strings with 5277 characters,
and the built_in function-call counts, 1263 in all, are:
= -- 116
> -- 59
< -- 4
+ -- 19
- -- 17
* -- 94
:= -- 178
add.period$ -- 7
call.type$ -- 2
change.case$ -- 11
chr.to.int$ -- 2
cite$ -- 4
duplicate$ -- 64
empty$ -- 107
format.name$ -- 21
if$ -- 280
int.to.chr$ -- 1
int.to.str$ -- 1
missing$ -- 2
newline$ -- 18
num.names$ -- 10
pop$ -- 26
preamble$ -- 1
purify$ -- 9
quote$ -- 0
skip$ -- 55
stack$ -- 0
substring$ -- 60
swap$ -- 22
text.length$ -- 3
text.prefix$ -- 0
top$ -- 0
type$ -- 22
warning$ -- 0
while$ -- 13
width$ -- 0
write$ -- 35
