\relax 
\citation{hildmann2011ds}
\@writefile{toc}{\contentsline {section}{\numberline {1}Introduction}{1}}
\@writefile{toc}{\contentsline {section}{\numberline {2}Source file}{1}}
\newlabel{code:imports}{{1}{2}}
\@writefile{lol}{\contentsline {lstlisting}{\numberline {1}Imports.}{2}}
\newlabel{code:microgrid}{{2}{2}}
\@writefile{lol}{\contentsline {lstlisting}{\numberline {2}Class \texttt  {Microgrid}.}{2}}
\newlabel{code:microgrid-fields}{{3}{3}}
\@writefile{lol}{\contentsline {lstlisting}{\numberline {3}Fields of \texttt  {Microgrid}, part 1.}{3}}
\newlabel{code:microgrid-storage}{{4}{3}}
\@writefile{lol}{\contentsline {lstlisting}{\numberline {4}Fields of \texttt  {Microgrid}, part 2.}{3}}
\newlabel{code:microgrid-main}{{5}{5}}
\@writefile{lol}{\contentsline {lstlisting}{\numberline {5}Main method of \texttt  {Microgrid}.}{5}}
\citation{kwiatkowska2011prism}
\newlabel{code:microgrid-methods-1}{{6}{8}}
\@writefile{lol}{\contentsline {lstlisting}{\numberline {6}Other methods of \texttt  {Microgrid}, part 1.}{8}}
\newlabel{code:microgrid-methods-2}{{7}{9}}
\@writefile{lol}{\contentsline {lstlisting}{\numberline {7}Other methods of \texttt  {Microgrid}, part 2.}{9}}
\newlabel{code:microgrid-scheduler}{{8}{9}}
\@writefile{lol}{\contentsline {lstlisting}{\numberline {8}Class \texttt  {Scheduler}.}{9}}
\newlabel{code:scheduler-fields}{{9}{9}}
\@writefile{lol}{\contentsline {lstlisting}{\numberline {9}Fields of \texttt  {Scheduler}.}{9}}
\newlabel{code:scheduler-constructor}{{10}{10}}
\@writefile{lol}{\contentsline {lstlisting}{\numberline {10}Constructor of \texttt  {Scheduler}.}{10}}
\newlabel{code:scheduler-methods}{{11}{10}}
\@writefile{lol}{\contentsline {lstlisting}{\numberline {11}Methods of \texttt  {Scheduler}.}{10}}
\newlabel{code:household-fields}{{12}{11}}
\@writefile{lol}{\contentsline {lstlisting}{\numberline {12}Fields of \texttt  {Household}.}{11}}
\newlabel{code:household-constructor}{{13}{12}}
\@writefile{lol}{\contentsline {lstlisting}{\numberline {13}Constructor of \texttt  {Household}.}{12}}
\newlabel{code:household-run-method}{{14}{12}}
\@writefile{lol}{\contentsline {lstlisting}{\numberline {14}Run method of \texttt  {Household}.}{12}}
\newlabel{code:household-method}{{15}{13}}
\@writefile{lol}{\contentsline {lstlisting}{\numberline {15}The other method of \texttt  {Household}.}{13}}
\newlabel{code:append}{{16}{13}}
\@writefile{lol}{\contentsline {lstlisting}{\numberline {16}Appending to the output model file.}{13}}
\newlabel{code:constants}{{17}{14}}
\@writefile{lol}{\contentsline {lstlisting}{\numberline {17}Constants in the model file.}{14}}
\newlabel{code:properties}{{18}{15}}
\@writefile{lol}{\contentsline {lstlisting}{\numberline {18}Properties.}{15}}
\@writefile{toc}{\contentsline {section}{\numberline {3}Range checking}{15}}
\newlabel{code:microgrid-short-array}{{19}{16}}
\@writefile{lol}{\contentsline {lstlisting}{\numberline {19}An array one element too short.}{16}}
\newlabel{code:guarded-indexing}{{20}{16}}
\@writefile{lol}{\contentsline {lstlisting}{\numberline {20}Accessing an array one element too short.}{16}}
\newlabel{code:guarded-indexing-formula}{{21}{17}}
\@writefile{lol}{\contentsline {lstlisting}{\numberline {21}Example formula for accessing the array.}{17}}
\@writefile{toc}{\contentsline {section}{\numberline {4}Locals and fields}{17}}
\newlabel{code:reset}{{22}{17}}
\@writefile{lol}{\contentsline {lstlisting}{\numberline {22}A reset of a local variable.}{17}}
\@writefile{toc}{\contentsline {section}{\numberline {5}Analytic and statistical versions}{18}}
\newlabel{code:is-statistical-new-interval}{{23}{18}}
\@writefile{lol}{\contentsline {lstlisting}{\numberline {23}A conditional zeroing of \texttt  {numJobs}.}{18}}
\newlabel{code:is-statistical-get-price}{{24}{19}}
\@writefile{lol}{\contentsline {lstlisting}{\numberline {24}New version of \texttt  {getPrice()}.}{19}}
\newlabel{code:is-statistical-num-households}{{25}{19}}
\@writefile{lol}{\contentsline {lstlisting}{\numberline {25}Number of households made dependent on the model version.}{19}}
\@writefile{toc}{\contentsline {section}{\numberline {6}External constants}{19}}
\bibdata{tutorial}
\bibcite{hildmann2011ds}{{1}{2011}{{Hildmann and Saffre}}{{}}}
\bibcite{kwiatkowska2011prism}{{2}{2011}{{Kwiatkowska et~al.}}{{Kwiatkowska, Norman, and Parker}}}
\newlabel{code:extconst-num-households}{{26}{20}}
\@writefile{lol}{\contentsline {lstlisting}{\numberline {26}Number of households is an undefined value.}{20}}
\newlabel{code:extconst-price-limit}{{27}{20}}
\@writefile{lol}{\contentsline {lstlisting}{\numberline {27}Price limit is externally definable as well.}{20}}
\bibstyle{plainnat}
