<?xml version="1.0" encoding="UTF-8" standalone="no"?>
<!-- Created with Inkscape (http://www.inkscape.org/) -->

<svg
   xmlns:dc="http://purl.org/dc/elements/1.1/"
   xmlns:cc="http://creativecommons.org/ns#"
   xmlns:rdf="http://www.w3.org/1999/02/22-rdf-syntax-ns#"
   xmlns:svg="http://www.w3.org/2000/svg"
   xmlns="http://www.w3.org/2000/svg"
   xmlns:sodipodi="http://sodipodi.sourceforge.net/DTD/sodipodi-0.dtd"
   xmlns:inkscape="http://www.inkscape.org/namespaces/inkscape"
   width="98.480217"
   height="40.09301"
   id="svg2"
   version="1.1"
   inkscape:version="0.91 r13725"
   sodipodi:docname="verics-rotate.svg"
   inkscape:export-filename="/home/art/projects/svn/doc/html-src/0.Home/verics.png"
   inkscape:export-xdpi="82.82"
   inkscape:export-ydpi="82.82">
  <defs
     id="defs4" />
  <sodipodi:namedview
     id="base"
     pagecolor="#ffffff"
     bordercolor="#666666"
     borderopacity="1.0"
     inkscape:pageopacity="0.0"
     inkscape:pageshadow="2"
     inkscape:zoom="1.979899"
     inkscape:cx="66.771712"
     inkscape:cy="27.841816"
     inkscape:document-units="px"
     inkscape:current-layer="layer1"
     showgrid="false"
     fit-margin-top="0"
     fit-margin-left="0"
     fit-margin-right="0"
     fit-margin-bottom="0"
     inkscape:window-width="1600"
     inkscape:window-height="1150"
     inkscape:window-x="0"
     inkscape:window-y="0"
     inkscape:window-maximized="1"
     showguides="true" />
  <metadata
     id="metadata7">
    <rdf:RDF>
      <cc:Work
         rdf:about="">
        <dc:format>image/svg+xml</dc:format>
        <dc:type
           rdf:resource="http://purl.org/dc/dcmitype/StillImage" />
        <dc:title></dc:title>
      </cc:Work>
    </rdf:RDF>
  </metadata>
  <g
     inkscape:label="Layer 1"
     inkscape:groupmode="layer"
     id="layer1"
     transform="translate(-132.3934,-435.46057)">
    <text
       xml:space="preserve"
       style="font-style:normal;font-variant:normal;font-weight:normal;font-stretch:normal;font-size:40px;line-height:125%;font-family:'Verics Regular 24';-inkscape-font-specification:'Verics Regular 24';text-align:center;letter-spacing:0px;word-spacing:0px;text-anchor:middle;fill:#000000;fill-opacity:1;stroke:none"
       x="28.789347"
       y="186.20847"
       id="text2991"
       sodipodi:linespacing="125%"
       transform="translate(90.372208,418.495)"><tspan
         sodipodi:role="line"
         id="tspan2993"
         x="28.789347"
         y="186.20847" /></text>
    <g
       style="font-style:normal;font-variant:normal;font-weight:normal;font-stretch:normal;font-size:70px;line-height:125%;font-family:'Verics Regular 181';-inkscape-font-specification:'Verics Regular 181, Normal';text-align:center;letter-spacing:0px;word-spacing:0px;writing-mode:lr-tb;text-anchor:middle;fill:#000000;fill-opacity:1;stroke:none;stroke-width:1px;stroke-linecap:butt;stroke-linejoin:miter;stroke-opacity:1"
       id="text4152"
       transform="matrix(0.61201634,0,0,0.61201634,63.792903,176.23712)">
      <path
         d="m 234.58729,467.78055 c 1.20768,5.55989 1.30644,8.54492 1.30644,8.95508 l 3.72558,0 1.25704,-11.82618 c -0.0456,-0.38737 -0.0798,-0.56966 -0.10254,-0.54687 -0.88867,0 -1.95964,0.057 -3.21289,0.1709 -0.68359,0.0456 -2.028,-0.0911 -4.03321,-0.41016 -2.00521,-0.29622 -3.66862,-0.99493 -4.99023,-2.45326 -1.45833,-1.61784 -2.38118,-2.54814 -2.76855,-3.50517 -0.3418,-0.82031 -0.71778,-1.83802 -1.12793,-3.41029 -0.36459,-1.38997 -0.53549,-2.06194 -0.5127,-3.08733 0.0684,-1.66341 0.18229,-2.62789 0.3418,-3.60771 0.20507,-1.27604 0.46712,-1.9215 0.78613,-2.65067 0.52409,-1.29883 1.19629,-2.30143 2.0166,-3.00781 0.75195,-0.63802 1.70899,-1.1849 2.8711,-1.64063 0.70638,-0.29622 1.61784,-0.47851 2.73437,-0.54687 0.75195,-0.0456 1.87988,0.2962 3.38379,1.02539 l 1.40137,4.68262 c 0.59245,0.29622 1.19629,0.44433 1.81152,0.44433 1.25325,0 2.33561,-0.79753 3.24707,-2.39258 1.36719,-2.347 0.71777,-4.13574 -1.94824,-5.36621 -0.68359,-0.31901 -1.53809,-0.6608 -2.56348,-1.02539 -2.09635,-0.70638 -4.84212,-0.72918 -8.2373,-0.0684 -2.00521,0.41016 -3.94206,1.36719 -5.81055,2.8711 -2.80273,2.23307 -4.62565,4.49637 -5.46875,7.50418 -0.0684,0.27344 -0.25065,0.93797 -0.54687,2.35073 -0.27344,1.20768 -0.30762,2.07706 -0.10254,4.0367 0.38737,4.07877 1.65201,6.55459 3.79394,8.85602 1.66341,1.80013 3.64584,3.12175 5.94727,3.96484 1.91406,0.68359 4.18131,0.91146 6.80176,0.6836 z m 6.66503,18.27776 c 0,-0.88867 -0.10254,-1.76594 -0.30761,-2.63183 -0.20508,-0.8431 -0.46713,-1.40137 -0.78614,-1.67481 -0.27343,-0.25065 -0.88867,-0.37597 -1.8457,-0.37597 -0.86589,0 -1.73177,0.10254 -2.59766,0.30761 -0.86588,0.22787 -1.44693,0.5127 -1.74316,0.8545 -0.25065,0.25065 -0.37598,0.85449 -0.37598,1.81152 0,0.86589 0.10254,1.74317 0.30762,2.63184 0.22787,0.88867 0.5127,1.46972 0.85449,1.74316 0.29623,0.22787 0.87728,0.3418 1.74317,0.3418 0.86589,0 1.75456,-0.11393 2.66601,-0.3418 0.91146,-0.20508 1.48112,-0.45573 1.70899,-0.75195 0.25065,-0.31901 0.37597,-0.95704 0.37597,-1.91407 z"
         id="path3350"
         inkscape:connector-curvature="0"
         sodipodi:nodetypes="ccccccccccccccccccsccccccccccccsccsccsccsccs" />
    </g>
    <text
       xml:space="preserve"
       style="font-style:normal;font-variant:normal;font-weight:bold;font-stretch:normal;font-size:40px;line-height:125%;font-family:'Latin Modern Roman';-inkscape-font-specification:'Latin Modern Roman';text-align:center;letter-spacing:0px;word-spacing:0px;text-anchor:middle;fill:#000000;fill-opacity:1;stroke:none;stroke-width:1px;stroke-linecap:butt;stroke-linejoin:miter;stroke-opacity:1"
       x="63.098091"
       y="317.82013"
       id="text3339"
       sodipodi:linespacing="125%"><tspan
         sodipodi:role="line"
         id="tspan3341"
         x="63.098091"
         y="317.82013" /></text>
    <path
       sodipodi:nodetypes="ccccccccccccc"
       inkscape:connector-curvature="0"
       style="font-style:normal;font-variant:normal;font-weight:normal;font-stretch:normal;font-size:72px;line-height:125%;font-family:'Verics Regular 23';-inkscape-font-specification:'Verics Regular 23';text-align:center;letter-spacing:0px;word-spacing:0px;text-anchor:middle;opacity:0;fill:#005e80;fill-opacity:1;stroke:none"
       id="path2998-7-7"
       d="m 227.61658,467.59623 c 0.65407,-0.068 1.28445,-0.21236 1.89115,-0.43291 0.60834,-0.20495 1.00077,-0.44258 1.17728,-0.71279 0.17652,-0.27022 0.22915,-0.74794 0.15782,-1.43317 -0.068,-0.65404 -0.22256,-1.30697 -0.46351,-1.95879 -0.24098,-0.65181 -0.48636,-1.04342 -0.73617,-1.17485 -0.26861,-0.16094 -0.73773,-0.20659 -1.40736,-0.13691 -0.63849,0.0664 -1.28366,0.22014 -1.93545,0.46111 -0.6518,0.241 -1.05121,0.4872 -1.19822,0.73861 -0.16253,0.25304 -0.21141,0.69102 -0.14664,1.31392 0.0683,0.65407 0.23202,1.32177 0.4918,2.00308 0.24259,0.6674 0.48959,1.07457 0.74102,1.22156 0.23585,0.14863 0.71194,0.18563 1.42828,0.11114" />
    <text
       xml:space="preserve"
       style="font-style:normal;font-variant:normal;font-weight:normal;font-stretch:normal;font-size:40px;line-height:1000%;font-family:'Verics Regular 216';-inkscape-font-specification:'Verics Regular 216, ';text-align:center;letter-spacing:0px;word-spacing:0px;text-anchor:middle;fill:#000000;fill-opacity:1;stroke:none;stroke-width:1px;stroke-linecap:butt;stroke-linejoin:miter;stroke-opacity:1"
       x="146.1434"
       y="462.53088"
       id="text3393"
       sodipodi:linespacing="1000%"><tspan
         sodipodi:role="line"
         id="tspan3395"
         x="146.1434"
         y="462.53088">V</tspan></text>
    <text
       xml:space="preserve"
       style="font-style:normal;font-variant:normal;font-weight:normal;font-stretch:normal;font-size:40px;line-height:1000%;font-family:'Verics Regular 216';-inkscape-font-specification:'Verics Regular 216, ';text-align:center;letter-spacing:0px;word-spacing:0px;text-anchor:middle;fill:#000000;fill-opacity:1;stroke:none;stroke-width:1px;stroke-linecap:butt;stroke-linejoin:miter;stroke-opacity:1"
       x="162.5563"
       y="462.91592"
       id="text3393-2"
       sodipodi:linespacing="1000%"><tspan
         sodipodi:role="line"
         id="tspan3395-0"
         x="162.5563"
         y="462.91592">e</tspan></text>
    <text
       xml:space="preserve"
       style="font-style:normal;font-variant:normal;font-weight:normal;font-stretch:normal;font-size:40px;line-height:1000%;font-family:'Verics Regular 216';-inkscape-font-specification:'Verics Regular 216, ';text-align:center;letter-spacing:0px;word-spacing:0px;text-anchor:middle;fill:#000000;fill-opacity:1;stroke:none;stroke-width:1px;stroke-linecap:butt;stroke-linejoin:miter;stroke-opacity:1"
       x="178.62773"
       y="462.91592"
       id="text3393-3"
       sodipodi:linespacing="1000%"><tspan
         sodipodi:role="line"
         id="tspan3395-2"
         x="178.62773"
         y="462.91592">r</tspan></text>
    <text
       xml:space="preserve"
       style="font-style:normal;font-variant:normal;font-weight:normal;font-stretch:normal;font-size:40px;line-height:1000%;font-family:'Verics Regular 216';-inkscape-font-specification:'Verics Regular 216, ';text-align:center;letter-spacing:0px;word-spacing:0px;text-anchor:middle;fill:#000000;fill-opacity:1;stroke:none;stroke-width:1px;stroke-linecap:butt;stroke-linejoin:miter;stroke-opacity:1"
       x="191.69917"
       y="462.91589"
       id="text3393-8"
       sodipodi:linespacing="1000%"><tspan
         sodipodi:role="line"
         id="tspan3395-7"
         x="191.69917"
         y="462.91589">i</tspan></text>
    <text
       xml:space="preserve"
       style="font-style:normal;font-variant:normal;font-weight:normal;font-stretch:normal;font-size:40px;line-height:1000%;font-family:'Verics Regular 216';-inkscape-font-specification:'Verics Regular 216, ';text-align:center;letter-spacing:0px;word-spacing:0px;text-anchor:middle;fill:#000000;fill-opacity:1;stroke:none;stroke-width:1px;stroke-linecap:butt;stroke-linejoin:miter;stroke-opacity:1"
       x="221.34204"
       y="462.55881"
       id="text3393-38"
       sodipodi:linespacing="1000%"><tspan
         sodipodi:role="line"
         id="tspan3395-04"
         x="221.34204"
         y="462.55881">s</tspan></text>
  </g>
</svg>
