\relax 
\@writefile{lof}{\contentsline {figure}{\numberline {1}{\ignorespaces  Examples of different kinds of barriers. \relax }}{1}}
\providecommand*\caption@xref[2]{\@setref\relax\@undefined{#1}}
\newlabel{fig:barriers}{{1}{1}}
\@writefile{lof}{\contentsline {figure}{\numberline {2}{\ignorespaces  Consuming subautomatons of a directed barrier with (a) an atomic and (b) non--atomic condition \relax $C\relax \GenericError  {               }{LaTeX Error: Bad math environment delimiter}{See the LaTeX manual or LaTeX Companion for explanation.}{Your command was ignored.\MessageBreak Type  I <command> <return>  to replace it with another command,\MessageBreak or  <return>  to continue without it.}. There are 3 producers. The initial and final locations are marked with 0 and 1, respectively. Transitions \relax $P_i\relax \GenericError  {               }{LaTeX Error: Bad math environment delimiter}{See the LaTeX manual or LaTeX Companion for explanation.}{Your command was ignored.\MessageBreak Type  I <command> <return>  to replace it with another command,\MessageBreak or  <return>  to continue without it.} with the guard \relax $C\relax \GenericError  {               }{LaTeX Error: Bad math environment delimiter}{See the LaTeX manual or LaTeX Companion for explanation.}{Your command was ignored.\MessageBreak Type  I <command> <return>  to replace it with another command,\MessageBreak or  <return>  to continue without it.} are shown solid, transitions \relax $L_i\relax \GenericError  {               }{LaTeX Error: Bad math environment delimiter}{See the LaTeX manual or LaTeX Companion for explanation.}{Your command was ignored.\MessageBreak Type  I <command> <return>  to replace it with another command,\MessageBreak or  <return>  to continue without it.} with the guard \relax $\neg C\relax \GenericError  {               }{LaTeX Error: Bad math environment delimiter}{See the LaTeX manual or LaTeX Companion for explanation.}{Your command was ignored.\MessageBreak Type  I <command> <return>  to replace it with another command,\MessageBreak or  <return>  to continue without it.} are shown dotted. Any label near some \relax $P_p\relax \GenericError  {               }{LaTeX Error: Bad math environment delimiter}{See the LaTeX manual or LaTeX Companion for explanation.}{Your command was ignored.\MessageBreak Type  I <command> <return>  to replace it with another command,\MessageBreak or  <return>  to continue without it.} denotes also the transition \relax $L_q\relax \GenericError  {               }{LaTeX Error: Bad math environment delimiter}{See the LaTeX manual or LaTeX Companion for explanation.}{Your command was ignored.\MessageBreak Type  I <command> <return>  to replace it with another command,\MessageBreak or  <return>  to continue without it.}, which is marked by a line, which is close and parallel to \relax $P_p\relax \GenericError  {               }{LaTeX Error: Bad math environment delimiter}{See the LaTeX manual or LaTeX Companion for explanation.}{Your command was ignored.\MessageBreak Type  I <command> <return>  to replace it with another command,\MessageBreak or  <return>  to continue without it.} near their common source location. The symbol `:=' denotes a transition, which performs computations required for an up--to--date evaluation of \relax $C\relax \GenericError  {               }{LaTeX Error: Bad math environment delimiter}{See the LaTeX manual or LaTeX Companion for explanation.}{Your command was ignored.\MessageBreak Type  I <command> <return>  to replace it with another command,\MessageBreak or  <return>  to continue without it.}. Transitions without a guard are shown dashed. \relax }}{2}}
\newlabel{fig:conditional-barrier}{{2}{2}}
