<?xml version="1.0" encoding="UTF-8" standalone="no"?>
<!-- Created with Inkscape (http://www.inkscape.org/) -->

<svg
   xmlns:dc="http://purl.org/dc/elements/1.1/"
   xmlns:cc="http://creativecommons.org/ns#"
   xmlns:rdf="http://www.w3.org/1999/02/22-rdf-syntax-ns#"
   xmlns:svg="http://www.w3.org/2000/svg"
   xmlns="http://www.w3.org/2000/svg"
   xmlns:sodipodi="http://sodipodi.sourceforge.net/DTD/sodipodi-0.dtd"
   xmlns:inkscape="http://www.inkscape.org/namespaces/inkscape"
   width="442"
   height="261"
   id="svg2"
   version="1.1"
   inkscape:version="0.48.4 r9939"
   sodipodi:docname="turnaround.svg"
   inkscape:export-filename="/home/art/projects/svn/doc/html-src/0.Home/2.Documentation/5.Quick-start guide/images-src/turnaround.png"
   inkscape:export-xdpi="82.817085"
   inkscape:export-ydpi="82.817085">
  <defs
     id="defs4" />
  <sodipodi:namedview
     id="base"
     pagecolor="#ffffff"
     bordercolor="#666666"
     borderopacity="1.0"
     inkscape:pageopacity="0.0"
     inkscape:pageshadow="2"
     inkscape:zoom="0.98994949"
     inkscape:cx="204.62074"
     inkscape:cy="119.78188"
     inkscape:document-units="px"
     inkscape:current-layer="layer1"
     showgrid="true"
     inkscape:window-width="1309"
     inkscape:window-height="979"
     inkscape:window-x="3"
     inkscape:window-y="52"
     inkscape:window-maximized="0"
     fit-margin-top="0"
     fit-margin-left="0"
     fit-margin-right="0"
     fit-margin-bottom="0">
    <inkscape:grid
       type="xygrid"
       id="grid2985"
       empspacing="5"
       visible="true"
       enabled="true"
       snapvisiblegridlinesonly="true"
       originx="-79px"
       originy="-721.99999px" />
  </sodipodi:namedview>
  <metadata
     id="metadata7">
    <rdf:RDF>
      <cc:Work
         rdf:about="">
        <dc:format>image/svg+xml</dc:format>
        <dc:type
           rdf:resource="http://purl.org/dc/dcmitype/StillImage" />
        <dc:title></dc:title>
      </cc:Work>
    </rdf:RDF>
  </metadata>
  <g
     inkscape:label="Layer 1"
     inkscape:groupmode="layer"
     id="layer1"
     transform="translate(-79,-69.36218)">
    <path
       style="fill:none;stroke:#000000;stroke-width:2;stroke-linecap:butt;stroke-linejoin:miter;stroke-miterlimit:4;stroke-opacity:1;stroke-dasharray:none"
       d="m 80,132.36218 80,0 60,60 160,0 60,-60 80,0"
       id="path2987"
       inkscape:connector-curvature="0" />
    <path
       style="fill:none;stroke:#000000;stroke-width:2;stroke-linecap:butt;stroke-linejoin:miter;stroke-miterlimit:4;stroke-opacity:1;stroke-dasharray:none"
       d="m 80,252.36218 80,0 60,-60"
       id="path2989"
       inkscape:connector-curvature="0" />
    <path
       style="fill:none;stroke:#000000;stroke-width:2;stroke-linecap:butt;stroke-linejoin:miter;stroke-miterlimit:4;stroke-opacity:1;stroke-dasharray:none"
       d="m 380,192.36218 60,60 80,0"
       id="path2991"
       inkscape:connector-curvature="0" />
    <path
       style="fill:none;stroke:#000000;stroke-width:2;stroke-linecap:butt;stroke-linejoin:miter;stroke-miterlimit:4;stroke-opacity:1;stroke-dasharray:12, 12;stroke-dashoffset:0"
       d="m 200,70.36218 0,250"
       id="path3785"
       inkscape:connector-curvature="0"
       sodipodi:nodetypes="cc" />
    <path
       style="fill:none;stroke:#000000;stroke-width:2;stroke-linecap:butt;stroke-linejoin:miter;stroke-miterlimit:4;stroke-opacity:1;stroke-dasharray:12, 12;stroke-dashoffset:0"
       d="m 401.42857,71.79075 0,250"
       id="path3785-2"
       inkscape:connector-curvature="0"
       sodipodi:nodetypes="cc" />
    <text
       xml:space="preserve"
       style="font-size:40px;font-style:normal;font-variant:normal;font-weight:normal;font-stretch:normal;text-align:center;line-height:125%;letter-spacing:0px;word-spacing:0px;text-anchor:middle;fill:#000000;fill-opacity:1;stroke:none;font-family:Verics Regular 24;-inkscape-font-specification:Verics Regular 24"
       x="120"
       y="330.36218"
       id="text3805"
       sodipodi:linespacing="125%"><tspan
         sodipodi:role="line"
         id="tspan3807"
         x="120"
         y="330.36218">W</tspan></text>
    <text
       xml:space="preserve"
       style="font-size:40px;font-style:normal;font-variant:normal;font-weight:normal;font-stretch:normal;text-align:center;line-height:125%;letter-spacing:0px;word-spacing:0px;text-anchor:middle;fill:#000000;fill-opacity:1;stroke:none;font-family:Verics Regular 24;-inkscape-font-specification:Verics Regular 24"
       x="480"
       y="330.36218"
       id="text3821"
       sodipodi:linespacing="125%"><tspan
         sodipodi:role="line"
         id="tspan3823"
         x="480"
         y="330.36218">E</tspan></text>
    <g
       id="g3807"
       transform="translate(1.9642857,2.1428571)">
      <path
         sodipodi:open="true"
         sodipodi:end="3.1200781"
         sodipodi:start="0"
         transform="matrix(0.48367752,0,0,0.60000031,242.84571,76.159134)"
         d="m 460,82.362183 c 0,2.761423 -2.23858,5 -5,5 -2.71951,0 -4.94034,-2.173558 -4.99884,-4.892436"
         sodipodi:ry="5"
         sodipodi:rx="5"
         sodipodi:cy="82.362183"
         sodipodi:cx="455"
         id="path2996"
         style="color:#000000;fill:none;stroke:#000000;stroke-width:2.78443813;stroke-linecap:butt;stroke-linejoin:miter;stroke-miterlimit:4;stroke-opacity:1;stroke-dasharray:none;stroke-dashoffset:0;marker:none;visibility:visible;display:inline;overflow:visible;enable-background:accumulate"
         sodipodi:type="arc" />
      <path
         sodipodi:open="true"
         sodipodi:end="3.1200781"
         sodipodi:start="0"
         transform="matrix(0.48367752,0,0,0.60000031,253.9012,76.373422)"
         d="m 460,82.362183 c 0,2.761423 -2.23858,5 -5,5 -2.71951,0 -4.94034,-2.173558 -4.99884,-4.892436"
         sodipodi:ry="5"
         sodipodi:rx="5"
         sodipodi:cy="82.362183"
         sodipodi:cx="455"
         id="path2996-1"
         style="color:#000000;fill:none;stroke:#000000;stroke-width:2.78443813;stroke-linecap:butt;stroke-linejoin:miter;stroke-miterlimit:4;stroke-opacity:1;stroke-dasharray:none;stroke-dashoffset:0;marker:none;visibility:visible;display:inline;overflow:visible;enable-background:accumulate"
         sodipodi:type="arc" />
      <path
         sodipodi:nodetypes="ccccc"
         inkscape:connector-curvature="0"
         id="path3784"
         d="m 512.10714,125.57647 -55.32143,0 5.71429,-15 44.60714,0 z"
         style="fill:none;stroke:#000000;stroke-width:2;stroke-linecap:butt;stroke-linejoin:miter;stroke-miterlimit:4;stroke-opacity:1;stroke-dasharray:none" />
      <path
         sodipodi:open="true"
         sodipodi:end="3.1200781"
         sodipodi:start="0"
         transform="matrix(0.48367752,0,0,0.60000031,274.63142,76.159138)"
         d="m 460,82.362183 c 0,2.761423 -2.23858,5 -5,5 -2.71951,0 -4.94034,-2.173558 -4.99884,-4.892436"
         sodipodi:ry="5"
         sodipodi:rx="5"
         sodipodi:cy="82.362183"
         sodipodi:cx="455"
         id="path2996-2"
         style="color:#000000;fill:none;stroke:#000000;stroke-width:2.78443813;stroke-linecap:butt;stroke-linejoin:miter;stroke-miterlimit:4;stroke-opacity:1;stroke-dasharray:none;stroke-dashoffset:0;marker:none;visibility:visible;display:inline;overflow:visible;enable-background:accumulate"
         sodipodi:type="arc" />
      <path
         sodipodi:open="true"
         sodipodi:end="3.1200781"
         sodipodi:start="0"
         transform="matrix(0.48367752,0,0,0.60000031,285.68691,76.373426)"
         d="m 460,82.362183 c 0,2.761423 -2.23858,5 -5,5 -2.71951,0 -4.94034,-2.173558 -4.99884,-4.892436"
         sodipodi:ry="5"
         sodipodi:rx="5"
         sodipodi:cy="82.362183"
         sodipodi:cx="455"
         id="path2996-1-4"
         style="color:#000000;fill:none;stroke:#000000;stroke-width:2.78443813;stroke-linecap:butt;stroke-linejoin:miter;stroke-miterlimit:4;stroke-opacity:1;stroke-dasharray:none;stroke-dashoffset:0;marker:none;visibility:visible;display:inline;overflow:visible;enable-background:accumulate"
         sodipodi:type="arc" />
    </g>
    <g
       id="g3807-6"
       transform="translate(-364.85296,122.64793)">
      <path
         sodipodi:open="true"
         sodipodi:end="3.1200781"
         sodipodi:start="0"
         transform="matrix(0.48367752,0,0,0.60000031,242.84571,76.159134)"
         d="m 460,82.362183 c 0,2.761423 -2.23858,5 -5,5 -2.71951,0 -4.94034,-2.173558 -4.99884,-4.892436"
         sodipodi:ry="5"
         sodipodi:rx="5"
         sodipodi:cy="82.362183"
         sodipodi:cx="455"
         id="path2996-21"
         style="color:#000000;fill:none;stroke:#000000;stroke-width:2.78443813;stroke-linecap:butt;stroke-linejoin:miter;stroke-miterlimit:4;stroke-opacity:1;stroke-dasharray:none;stroke-dashoffset:0;marker:none;visibility:visible;display:inline;overflow:visible;enable-background:accumulate"
         sodipodi:type="arc" />
      <path
         sodipodi:open="true"
         sodipodi:end="3.1200781"
         sodipodi:start="0"
         transform="matrix(0.48367752,0,0,0.60000031,253.9012,76.373422)"
         d="m 460,82.362183 c 0,2.761423 -2.23858,5 -5,5 -2.71951,0 -4.94034,-2.173558 -4.99884,-4.892436"
         sodipodi:ry="5"
         sodipodi:rx="5"
         sodipodi:cy="82.362183"
         sodipodi:cx="455"
         id="path2996-1-7"
         style="color:#000000;fill:none;stroke:#000000;stroke-width:2.78443813;stroke-linecap:butt;stroke-linejoin:miter;stroke-miterlimit:4;stroke-opacity:1;stroke-dasharray:none;stroke-dashoffset:0;marker:none;visibility:visible;display:inline;overflow:visible;enable-background:accumulate"
         sodipodi:type="arc" />
      <path
         sodipodi:nodetypes="ccccc"
         inkscape:connector-curvature="0"
         id="path3784-0"
         d="m 512.10714,125.57647 -55.32143,0 5.71429,-15 44.60714,0 z"
         style="fill:none;stroke:#000000;stroke-width:2;stroke-linecap:butt;stroke-linejoin:miter;stroke-miterlimit:4;stroke-opacity:1;stroke-dasharray:none" />
      <path
         sodipodi:open="true"
         sodipodi:end="3.1200781"
         sodipodi:start="0"
         transform="matrix(0.48367752,0,0,0.60000031,274.63142,76.159138)"
         d="m 460,82.362183 c 0,2.761423 -2.23858,5 -5,5 -2.71951,0 -4.94034,-2.173558 -4.99884,-4.892436"
         sodipodi:ry="5"
         sodipodi:rx="5"
         sodipodi:cy="82.362183"
         sodipodi:cx="455"
         id="path2996-2-5"
         style="color:#000000;fill:none;stroke:#000000;stroke-width:2.78443813;stroke-linecap:butt;stroke-linejoin:miter;stroke-miterlimit:4;stroke-opacity:1;stroke-dasharray:none;stroke-dashoffset:0;marker:none;visibility:visible;display:inline;overflow:visible;enable-background:accumulate"
         sodipodi:type="arc" />
      <path
         sodipodi:open="true"
         sodipodi:end="3.1200781"
         sodipodi:start="0"
         transform="matrix(0.48367752,0,0,0.60000031,285.68691,76.373426)"
         d="m 460,82.362183 c 0,2.761423 -2.23858,5 -5,5 -2.71951,0 -4.94034,-2.173558 -4.99884,-4.892436"
         sodipodi:ry="5"
         sodipodi:rx="5"
         sodipodi:cy="82.362183"
         sodipodi:cx="455"
         id="path2996-1-4-9"
         style="color:#000000;fill:none;stroke:#000000;stroke-width:2.78443813;stroke-linecap:butt;stroke-linejoin:miter;stroke-miterlimit:4;stroke-opacity:1;stroke-dasharray:none;stroke-dashoffset:0;marker:none;visibility:visible;display:inline;overflow:visible;enable-background:accumulate"
         sodipodi:type="arc" />
    </g>
  </g>
</svg>
